name="The Coming Storm"
picture="thumbnail.png"
replace_path="music"
replace_path="events"
replace_path="history/countries"
replace_path="history/states"
replace_path="history/general"
replace_path="history/units"
replace_path="map/strategicregions"
replace_path="map/supplyareas"
replace_path="common/abilities"
replace_path="common/autonomous_states"
replace_path="common/opinion_modifiers"
replace_path="common/ai_areas"
replace_path="common/ai_equipment"
replace_path="common/ai_focuses"
replace_path="common/ai_peace"
replace_path="common/ai_strategy"
replace_path="common/ai_strategy_plans"
replace_path="common/ai_templates"
replace_path="common/country_leader"
replace_path="common/characters"
replace_path="common/country_tag_aliases"
replace_path="common/bookmarks"
replace_path="common/intelligence_agencies"
replace_path="common/intelligence_agency_upgrades"
replace_path="common/decisions"
replace_path="common/decisions/categories"
replace_path="common/operations"
replace_path="common/operation_phases"
replace_path="common/national_focus"
replace_path="common/ideas"
replace_path="common/scripted_guis"
replace_path="common/on_actions"
replace_path="common/scripted_effects"
replace_path="common/scripted_localisation"
replace_path="common/scripted_triggers"
replace_path="common/dynamic_modifiers"
replace_path="common/units/names"
replace_path="common/units/names_divisions"
replace_path="common/units/names_railway_guns"
replace_path="common/units/names_ships"
replace_path="common/units/codenames_operatives"
replace_path="common/unit_leader"
replace_path="gfx/loadingscreens"
replace_path="common/bop"
replace_path="common/peace_conference/ai_peace"
replace_path="common/peace_conference/categories"
replace_path="common/peace_conference/cost_modifiers"
replace_path="common/unit_medals"
replace_path="common/military_industrial_organization/ai_bonus_weights"
replace_path="common/military_industrial_organization/organizations"
replace_path="common/military_industrial_organization/policies"
tags={
	"Events"
	"Gameplay"
	"Graphics"
	"Historical"
	"Ideologies"
	"Map"
	"Military"
	"National Focuses"
	"Technologies"
}
supported_version="1.13.*"
path="C:/Users/bramb/Documents/Paradox Interactive/Hearts of Iron IV/mod/thecomingstorm"
remote_file_id="2915007608"