units = {

	fleet = {
		name = "Dreadnought Squadron"
		naval_base = 9458 
		task_force = {
			name = "Dreadnought Squadron"
			naval_base = 9458 # Portsmouth(i think)
			ship = { name = "HMS Dreadnought" definition = pre_dreadnaught equipment = { ship_hull_heavy_1 = { amount = 1 owner = ENG version_name = "Dreadnought Class" } } }
		}
	}











}