units = {

	fleet = {
		name = "Bellerophon Squadron"
		naval_base = 9458 
		task_force = {
			name = "Bellerophon Squadron"
			naval_base = 9458 # Portsmouth(i think)
			ship = { name = "HMS Bellerophon" definition = pre_dreadnaught equipment = { ship_hull_heavy_1 = { amount = 1 owner = ENG version_name = "Bellerophon Class" } } }
		}
	}











}