2 8 68 391 6241 6286 13772 6336 9335 11318 
2 3 68 3314 6336 
2 6 68 3211 9498 3262 11419 516 
2 4 6241 9363 3512 6469 
1 4 11318 336 11360 241 
2 4 9498 11456 3444 6469 
1 6 3262 6496 6500 13761 11562 6537 
1 4 3262 9431 480 6560 
1 3 6500 9574 13775 
2 4 6377 3395 405 11388 
2 3 11388 6535 495 
1 2 495 6469 
2 2 6469 587 
2 3 3488 3547 587 
2 6 587 3547 11494 3423 11560 6488 
2 4 11560 3558 549 9503 
2 5 9503 1346 11502 9559 6583 
2 4 6377 6263 6325 9347 
1 4 9347 3368 3231 6389 
2 5 9320 9294 11219 375 6521 
2 5 3535 6582 11545 3499 6521 
2 6 9570 552 6595 3572 11415 9496 
2 4 9570 6485 9511 11467 
2 3 514 6441 3499 
2 3 514 11481 3535 
2 3 3535 9471 3585 
2 4 3585 11432 6559 514 
1 2 692 9515 
2 4 9515 3299 571 11544 
2 5 11544 9416 11404 9441 3585 
2 3 571 586 11404 
2 4 9517 11499 708 692 
2 4 11544 11529 6555 9517 
2 6 6488 589 3574 6568 3530 9517 
2 4 3530 6542 6712 11640 
2 3 9503 6529 678 
2 3 3558 563 11531 
2 4 3561 425 6501 3535 
1 5 3561 9524 6549 3397 6488 
2 3 3522 9456 3499 
2 4 3522 9375 526 6377 
1 2 362 389 
1 3 6332 395 3384 
2 12 6332 6402 3380 389 334 11260 9252 9387 6236 537 11505 6521 
1 2 3488 6537 
1 4 6389 11366 11251 3277 
1 3 11305 9320 9347 
2 4 6377 3271 3326 241 
2 4 6377 11493 6513 3561 
2 5 11544 9572 11417 6594 6488 
2 3 692 9652 707 
2 3 9515 9681 6725 
2 3 9511 6512 9457 
2 6 6558 3532 11478 3473 9496 11505 
2 5 6558 17 3381 243 13515 
2 6 514 9535 11401 6534 3545 9570 
1 3 13515 279 11260 
1 6 13515 3295 6347 9346 11245 395 
1 4 11386 9327 9398 11245 
1 4 6558 3460 3510 9570 
1 5 9388 3340 3258 11444 6521 
1 3 3258 293 321 
1 3 11305 11331 6389 
1 2 10362 12336 
1 2 10362 4457 
1 3 10362 12496 10502 
1 2 12468 12440 
1 2 2152 2194 
1 6 2197 5195 2203 2211 8241 12988 
1 4 2197 7839 4819 12632 
1 4 1814 4804 12617 12604 
1 3 10334 10373 4543 
1 5 4543 1565 7887 1713 7783 
1 3 4804 7692 1801 
1 2 4718 7887 
1 3 6282 3207 11505 
1 4 11386 11329 11357 347 
1 3 3544 9400 9508 
1 6 9400 11492 548 6401 3230 13515 
1 5 9508 11428 584 13205 9427 
1 4 347 11247 290 3392 
2 6 3392 11466 9544 402 524 3544 
1 3 3412 6546 3392 
1 6 11479 9454 572 513 13494 3412 
1 3 11467 6464 9427 
1 3 6522 9468 11479 
1 2 6522 6499 
1 4 6499 442 11413 9427 
1 5 347 13780 3393 9274 3320 
1 5 3320 327 3272 11312 3384 
1 3 6583 11407 6537 
1 3 6537 13776 13775 
1 2 13776 516 
1 3 516 3576 6560 
1 2 516 9536 
1 3 678 6683 9620 
1 2 663 11640 
1 3 11483 3516 9536 
1 3 11483 3536 11548 
1 2 3536 575 
1 7 11483 6504 13778 11420 6585 9534 11506 
1 4 9534 6569 11563 9434 
1 3 663 11604 9620 
1 3 9620 9622 6666 
1 4 6613 9590 6639 6666 
1 3 11506 9725 512 
1 7 512 6533 3671 9478 503 13576 11465 
1 6 6569 9578 6599 11535 3579 6449 
1 8 9534 9523 6547 3534 3509 3495 527 9495 
1 3 11506 11518 13011 
1 4 11516 521 13517 9503 
1 6 13011 11732 6545 11488 11642 11516 
1 8 512 3493 6688 11611 9609 9607 3594 6613 
1 5 6688 3655 6651 3626 620 
1 8 6613 11593 6786 11716 9728 11877 11849 11834 
1 7 11877 9898 6960 3946 6917 943 6766 
1 7 3671 669 11596 11869 625 11582 6657 
1 6 9737 11565 11720 6792 3598 625 
1 4 9737 6762 9710 743 
1 5 6766 3749 929 9717 9737 
1 4 9652 11620 673 11618 
1 7 663 11623 6680 6678 9636 9633 11618 
1 4 663 11601 3641 9600 
1 4 9622 11590 9618 9587 
1 2 3530 3558 
1 3 3423 9575 11531 
1 4 776 11726 771 6788 
1 6 6725 3703 9665 11651 704 11666 
1 4 707 688 3684 11651 
1 10 11432 6440 11542 9421 9569 9541 732 6552 9527 11666 
1 8 11666 6739 3718 11511 6562 421 9567 13545 
1 8 11666 6690 9679 653 11612 3631 599 6626 
1 2 3946 9853 
1 5 9853 9824 6927 854 9764 
1 7 743 3737 3933 932 3902 884 885 
1 4 885 903 6936 11825 
1 5 11825 9846 9800 3794 3938 
1 4 11618 9630 11598 9598 
1 3 9587 6635 776 
1 3 9600 9584 3780 
1 6 11666 3700 6720 9676 11663 9660 
1 8 9660 9690 6561 3537 11539 9551 13545 9457 
1 2 599 11564 
1 9 9660 6703 682 3670 6672 665 3654 6650 11564 
1 4 4076 7164 3996 4055 
1 3 4055 7011 12049 
1 2 12049 4073 
1 9 11999 1064 12071 12044 11974 7144 10031 1068 4055 
3 6 11771 987 892 964 3783 1150 
3 8 11771 11808 916 13645 4572 11744 7523 10433 
2 10 10433 13658 12412 10503 12482 11906 6811 810 3977 957 
2 12 13735 13720 13723 13715 13694 13689 13677 1847 13687 13666 13663 10433 
2 6 11771 9885 3895 3839 6860 11835 
2 4 11835 912 9790 4052 
2 5 4052 10065 11915 12040 7125 
2 10 7125 9981 848 6928 3981 3852 6922 959 6822 898 
2 7 7125 7221 1100 10115 12089 4086 4056 
1 9 1182 9998 7157 7087 12097 10125 4142 11960 7072 
1 5 7072 12031 7212 11946 1092 
1 10 1182 4100 7016 4118 1024 7169 1165 9807 11847 6994 
1 3 1025 4164 11925 
1 10 11771 846 6951 9788 9835 6837 3900 1052 12043 10068 
1 3 10068 11761 9843 
1 7 10068 4137 11944 11980 10368 7189 1069 
1 6 1069 12045 4071 7089 1184 10000 
1 5 11913 996 7120 10034 7014 
1 10 11913 4148 1001 1161 1121 12055 9956 10043 4037 1069 
1 10 4196 1166 1193 1138 4113 11961 1066 9944 11947 1055 
1 14 4619 4631 13705 7097 13143 13737 12350 9982 12014 1120 12095 1047 7108 10062 
1 6 8049 7208 1575 7571 4606 1139 
1 8 4619 10462 12426 10434 7540 4066 7656 1139 
1 9 1139 4144 10379 1188 13748 7109 12026 4140 9843 
1 5 1185 4075 12075 10075 12319 
1 5 12319 1114 4501 7446 1319 
1 10 11818 3526 6990 9791 11774 11905 3893 6895 13631 9833 
1 6 9833 11829 11811 3851 3786 3951 
1 5 3951 6808 9806 11784 11747 
1 8 4112 6992 3927 11796 6945 3983 909 3951 
1 4 3983 9878 11860 940 
1 8 940 6894 7143 6807 9763 9830 11810 11746 
1 5 12473 7140 1056 4550 4111 
1 2 4111 792 
1 2 4206 1086 
1 7 4111 1074 7170 7151 10089 4017 4115 
1 7 4115 11976 13556 2027 13554 13553 6598 
1 8 949 3971 3952 3819 6842 8205 8144 9783 
1 7 949 3908 3937 6923 9862 9888 9902 
1 2 6842 9769 
1 2 3952 3796 
1 4 9862 13633 13629 11905 
1 3 9769 6658 9617 
1 14 7661 1536 4614 4477 11645 6763 4605 12309 4534 1530 9626 3658 3656 3653 
1 6 4534 1599 9702 12380 12441 10472 
2 3 6115 11078 6160 
2 6 6160 179 9138 11114 9054 6164 
1 3 9174 14 6115 
1 7 3022 6118 11206 11113 6042 3136 6160 
1 10 3022 6038 3111 11049 3162 11052 46 9154 11123 11209 
1 2 53 6176 
1 9 9108 6165 9186 9226 11155 3095 101 6055 192 
1 6 11506 11491 6949 9490 3669 3652 
1 2 11834 911 
1 3 13011 13583 9472 
1 4 6545 5291 13507 9559 
1 5 3652 9642 6698 698 6683 
1 5 3652 11628 648 11794 6613 
1 7 3272 6296 6360 6229 9731 3354 9262 
1 6 3354 9483 6342 6222 10869 9340 
1 10 9340 9240 10493 3388 6408 6178 9079 11127 11426 3152 
1 3 11127 11443 4640 
2 9 9340 10323 7482 310 6459 233 11342 11391 3320 
2 6 6459 9275 3333 3310 6324 11202 
3 4 117 6197 79 6174 
2 6 11202 11097 95 3089 11072 117 
1 5 6408 9485 592 415 11202 
1 4 11370 277 6340 3320 
2 8 11370 11216 9236 9304 3309 6306 3281 290 
1 6 6296 9404 11498 11226 11358 310 
2 5 525 504 11490 9481 476 
1 5 476 3457 6509 6557 572 
2 10 6380 3391 3327 274 335 11254 9272 6387 3362 306 
2 7 306 11290 11220 3331 11322 294 11370 
1 6 11370 216 6292 3378 6344 9288 
2 5 525 11557 6458 11489 11425 
2 5 9288 546 9506 6508 11425 
2 6 6459 3219 6326 6249 9323 11241 
2 4 11241 11353 3247 306 
3 13 6380 11282 3358 11250 3215 11315 2999 187 110 11191 6154 71 117 
2 12 3580 11244 11310 11368 11242 9366 11347 6396 6290 9348 6414 6380 
2 6 3580 580 9542 6565 9477 11425 
1 6 504 9465 11424 11438 458 488 
1 4 11683 11546 409 458 
1 5 409 6597 3575 3757 9576 
1 4 11670 9698 9714 3757 
1 6 11479 11411 5224 2206 11550 577 
1 5 577 3407 12944 414 6600 
1 3 6600 11705 9576 
1 4 9698 741 13785 11686 
2 10 3392 11528 6415 560 3556 11285 215 3203 6319 9288 
1 6 11437 9433 6451 9573 3403 409 
1 5 11437 11422 588 6596 11700 
1 7 11700 6771 9712 568 3722 705 3686 
1 5 741 6743 13786 3724 6706 
1 4 6706 11636 674 9617 
1 5 9617 3636 3639 637 6652 
1 4 11686 3707 565 9716 
1 4 9716 13540 6584 577 
1 5 9716 13541 6747 9701 6706 
1 9 11622 676 11639 6709 3676 690 11619 3663 9617 
1 9 949 13642 13641 11868 11887 9602 6998 11583 11586 
1 5 11437 453 486 3466 6474 
1 5 6474 6493 6445 9430 9417 
1 4 9417 585 9744 3765 
1 3 3765 3752 3734 
1 3 3734 3760 719 
3 6 6380 9378 9278 9356 11338 6269 
3 6 6269 9267 3347 6295 9389 11375 
3 8 11375 6327 9325 3383 3282 9259 3315 6338 
3 10 6338 372 3365 3214 10301 9385 6368 7237 291 1278 
3 7 1278 12117 10136 3280 7320 10133 1821 
3 11 1821 307 12106 1387 7846 9512 10670 10600 12652 1709 10696 
3 6 10696 12679 1733 1860 7825 7274 
3 11 7274 10652 4665 12631 10580 12563 12628 10562 10661 10543 4797 
3 4 10543 1762 4837 10528 
1 3 7725 4719 13735 
3 6 10528 7835 10658 7751 12641 7725 
3 13 7725 10559 12543 7851 10678 12657 7763 12654 1802 4246 12261 4805 12189 
3 9 12189 10466 11643 6686 664 6684 11750 6989 957 
1 4 9427 9412 13561 13545 
1 4 9598 603 3776 11734 
1 3 3780 773 11734 
1 5 11734 6606 6985 1616 9907 
1 6 9907 9879 3885 6862 11751 9904 
1 5 9904 11846 923 9826 819 
1 5 819 11803 3958 6843 9784 
1 3 1616 3976 6788 
1 5 11887 11857 11832 3833 3526 
1 8 11586 11580 3617 619 3623 6670 11625 9660 
1 10 9660 684 6700 679 646 9606 11592 6667 11657 6652 
1 9 11622 693 696 3696 11644 699 6716 716 9660 
1 6 6788 3772 11891 9909 3928 911 
1 5 6639 6609 9745 9738 6780 
1 4 6780 11730 9741 11726 
1 5 11542 9429 583 3569 11511 
1 7 619 11577 6647 9595 624 11581 3654 
1 6 9595 9588 11572 9922 11872 11899 
1 5 3673 6673 668 11615 9630 
1 2 3673 11612 
1 3 6673 3675 688 
1 3 11584 3604 603 
2 11 383 6331 3286 3375 3063 6188 9209 9109 11082 161 6050 
2 10 9279 6345 9300 9410 242 11311 9406 6397 6311 6188 
2 5 383 3307 6412 9362 6345 
2 12 6188 6164 11044 11197 9193 3148 49 9051 11209 9035 205 130 
2 6 383 6310 171 11151 11184 6115 
1 3 11215 363 242 
2 4 6050 9149 6127 9193 
1 2 11380 9109 
2 9 130 9088 182 3113 11067 9220 6161 6083 9108 
2 8 11744 11864 9913 9928 3947 11862 944 898 
2 5 10115 11977 13620 4126 10110 
3 7 6174 11080 181 3120 126 13783 4640 
