# on_daily_QNG = {
# 	effect = {
# 		if = {
# 			limit = {
# 				tag = QNG
# 				QNG = {
# 					has_war = yes
# 					has_country_flag = TCS_XINHAI_active
# 					surrender_progress > 0.4
# 				}
# 			}
# 			country_event = TCS_XINHAI_political.2
# 		}
# 	}
# }