﻿# SWE_OPERATIVE_CODENAME_HISTORICAL = {
# 	name = SWE_OPERATIVE_CODENAME_HISTORICAL

# 	for_countries = { SWE }

# 	type = codename

# 	fallback_name = "Agent %d"

# 	unique = {
# 		"Getingen"
# 		"Örnen"
# 		"Vargen"
# 		"Lokatten"
# 		"Räven"
# 		"Ugglan"
# 		"Älgen"
# 		"Vesslan"
#         "Huggormen"
#         "Illern"
#         "Ålen"
#         "Fladdermusen"
#         "Järven"
#         "Svalan"
#         "Falken"
#         "Tärnan"
#         "Surströmmingen"
#         "Sorken"
#         "Ekorren"
#         "Snoken"
#         "Grävlingen"
#         "Sälen"
#         "Mullvaden"
# 	}
# }
