state={
	id=1060
	name="STATE_1060"
	provinces={
		1928
	}
	history={
		owner = ENG
		buildings = {
			infrastructure = 0
		}
	}
	manpower=100000
	state_category=rural
	buildings_max_level_factor=1.000
}
