state={
	id=1061
	name="STATE_1061"
	provinces={
		10906
	}
	history={
		victory_points = {
			10906 1
		}
		owner = HOL
		buildings = {
			infrastructure = 0
		}
	}
	manpower=100000
	state_category=rural
	buildings_max_level_factor=1.000
}
