state={
	id=1077
	name="STATE_1077"
	provinces={
		2195 2209
	}
	history={
		owner = PAR
		add_core_of = PAR
		add_claim_by = BOL
		buildings = {
			infrastructure = 0
		}
	}
	manpower=100000
	state_category=rural
	buildings_max_level_factor=1.000
}
