state={
	id=1083
	name="STATE_1083"
	provinces={
		1285 1300 1302 1328 1400 1605 4255 4334 4379 4397 4405 7229 7271 7280 7380 9988 10016 10129 10137 10162 10232 10309 11909 11936 12109 12176 12204 12297
	}
	history = {
		owner = FRA
	}
	manpower=100000
	state_category = rural
	buildings_max_level_factor=1.000
}
