state={
	id=1091
	name="STATE_1091"
	provinces={
		2075 13502 13506
	}
	history={
		owner = NIC
		add_core_of = NIC
		buildings = {
			infrastructure = 1
		}
	}
	manpower=100000
	buildings_max_level_factor=1.000
	state_category=city
}
