state={
	id=1106
	name="STATE_1106"
	provinces={
		7990 10759 10806 10828 10890 10913 11249
	}
	history={
		owner = PER
		buildings = {
			infrastructure = 1
		}
		add_core_of = PER
	}
	state_category=rural
	manpower=243660
	buildings_max_level_factor=1.000
}
