state={
	id=1108
	name="STATE_1108"
	provinces={
		8101 12455 13567
	}
	history = {
		victory_points = {
			13567 2
		}
		owner = RUW
		add_core_of = RUW
	}
	manpower=89000
	buildings_max_level_factor=1.000
	state_category = rural
}
