state={
	id=1113
	name="STATE_1113"
	provinces={
		1838
	}
	history={
		owner = KUM
		add_core_of = KUM
	}
	manpower=100000
	buildings_max_level_factor=1.000
	state_category = wasteland
	impassable = yes
}
