
state={
	id=115
	name="STATE_115"
	manpower = 3529843

	state_category = city
	history={
		owner = ITA
		victory_points = {
			10074 15
		}
		victory_points = {
			4159 2
		}
		victory_points = {
			4014 3
		}
		victory_points = {
			7059 1
		}
		buildings = {
			infrastructure = 4
			industrial_complex = 1
			dockyard = 1
			10074 = {
				naval_base = 2
			}
			7059 = {
				naval_base = 5
			}
			4159 = {
				naval_base = 8
			}
			4014 = {
				naval_base = 3
			}
		}
		add_core_of = ITA
	}

	provinces={
		1009 1156 3857 4014 4159 7059 7147 10074 12047
	}
}
