
state={
	id=129
	name="STATE_129"
	manpower = 2212021

	state_category = metropolis

	resources={
		steel=11 # was: 20
	}

	history={
		owner = ENG
		buildings = {
			infrastructure = 4
			arms_factory = 2
			industrial_complex = 1
		}
		add_core_of = ENG
	}

	provinces={
		364 3353 6237 9250 9268 9322 11279
	}
}
