
state={
	id=153
	name="STATE_153"

	history={
		owner = AUS
		victory_points = {
			673 5
		}
		buildings = {
			infrastructure = 5
			industrial_complex = 1
			air_base = 3

		}
		add_core_of = AUS
		1938.3.12 = {
			owner = GER
			controller = GER
			add_core_of = GER

		}

	}

	provinces={
		673 9633 9636 11618 11634
	}
	manpower=1655340
	buildings_max_level_factor=1.000
	state_category=rural
}
