
state={
	id=170
	name="STATE_170"
	manpower = 1782253

	state_category = large_town

	resources={
		tungsten=4 # was: 6
	}

	history={
		owner = SPR
		victory_points = {
			6902 1
		}
		victory_points = {
			3874 1
		}
		buildings = {
			infrastructure = 5
			industrial_complex = 1
		}
		add_core_of = SPR
	}

	provinces={
		794 809 874 931 985 3874 3930 6866 6867 6902 6948 6954 9770 9839 9877 9917 9925 11756 11780 11798 11851
	}
}
