
state={
	id=172
	name="STATE_172"
	manpower = 1794880

	state_category = metropolis

	resources={
		steel=8 # was: 12
	}

	history={
		owner = SPR
		victory_points = {
			740 3
		}
		buildings = {
			infrastructure = 3
			arms_factory = 1
			industrial_complex = 2
			740 = {
				naval_base = 1
			}
		}
		add_core_of = SPR
	}

	provinces={
		738 740 932 3735 3737 3931 3933 6756 9703 9857 11688
	}
}
