
state={
	id=175
	name="STATE_175"
	manpower = 848903

	state_category = town

	history={
		owner = SPR
		victory_points = {
			6832 1
		}
		victory_points = {
			3945 1
		}
		buildings = {
			industrial_complex = 1
			infrastructure = 3
		}
		add_core_of = SPR
	}

	provinces={
		888 942 3891 3945 3953 6800 6832 6879 6896 9757 9778 9828 9852 9881 11742 11812 11863 12081
	}
}
