
state={
	id=254
	name="STATE_254"
	manpower = 1824120

	state_category = rural

	history={
		owner = RUS
		buildings = {
			infrastructure = 4
		}
		add_core_of = RUS
		1918.11.11 = {
			owner = SOV
			controller = SOV
			add_core_of = SOV
		}
		victory_points = {
			11248 1
		}
	}

	provinces={
		269 283 314 330 397 3257 3275 3302 3322 3356 3387 6279 6284 9266 9273 9313 9330 9376 11248 11258 11294 11314 11363 11379
	}
}
