
state={
	id=344
	name="STATE_344"

	history={
		owner = OTT
		victory_points = {
			9893 1
		}
		victory_points = {
			886 1
		}
		buildings = {
			infrastructure = 4
			industrial_complex = 2

		}
		add_core_of = OTT

	}

	provinces={
		886 3921 6813 6965 7620 9912
	}
	manpower=727198
	buildings_max_level_factor=1.000
	state_category=rural
}
