
state={
	id=349
	name="STATE_349"

	history={
		owner = OTT
		victory_points = {
			9777 1
		}
		buildings = {
			infrastructure = 3
			industrial_complex = 1

		}
		add_core_of = OTT

	}

	provinces={
		3890 3903 3950 6888 6919 6950 6977 9761 9777
	}
	manpower=592821
	buildings_max_level_factor=1.000
	state_category=rural
}
