
state={
	id=360
	name="STATE_360"
	manpower = 9631346

	state_category = megalopolis

	resources={
		steel=44 # was: 80
	}


	history={
		owner = USA
		buildings = {
			infrastructure = 4
			industrial_complex = 5
			dockyard = 7
			6845 = {
				naval_base = 8

			}
		}
		add_core_of = USA
		victory_points = {
			6845 20
		}
		victory_points = {
			11800 15
		}

	}

	provinces={
		702 822 847 862 880 891 894 3687 3697 3802 3824 3847 3850 3880 3897 6705 6845 6869 6872 6885 6899 9662 9789 9804 9820 9836 11648 11758 11769 11785 11789 11799 11800 11817 12405
	}
}
