
state={
	id=421
	name="STATE_421"

	history={
		owner = PER
		buildings = {
			infrastructure = 2
		}
		add_core_of = PER
		victory_points = {
			5098 5
		}
		victory_points = {
			829 5
		}

	}

	provinces={
		829 5050 5098 7953 10774
	}
	manpower=299021
	buildings_max_level_factor=1.000
	state_category=rural
}
