
state={
	id=433
	name="STATE_433" # ENGasthan
	manpower = 11786000

	state_category = town


	resources={
		tungsten=32 # was: 42
	}

	history={
		victory_points = {
			2054 1
		}
		owner = ENG
		buildings = {
			infrastructure = 3
			industrial_complex = 1
		}

	}

	provinces={
		1199 1908 2054 4149 4915 4971 4984 7905 7998 10847 10866 12041 12718 12743 12829 12844 12876 12886
	}
}
