
state={
	id=444
	name="STATE_444"

	history={
		victory_points = {
			8066 1
		}
		owner = ENG
		buildings = {
			infrastructure = 2

		}
	}

	provinces={
		5075 8013
	}
	manpower=463500
	buildings_max_level_factor=1.000
	state_category=rural
}
