
state={
	id=446
	name="STATE_446"

	history={
		owner = EGY
		buildings = {
			infrastructure = 5
			industrial_complex = 1
			air_base = 5

		}
		add_core_of = EGY

	}

	provinces={
		1068 4055 4143 7188 10031 10126
	}
	manpower=6586596
	buildings_max_level_factor=1.000
	state_category=rural
}
