
state={
	id=449
	name="STATE_449"

	history={
		owner = OTT
		buildings = {
			infrastructure = 3

		}
		1914.1.1 = {
			owner = ITA
			controller = ITA
			remove_core_of = OTT
		}
	}

	provinces={
		1041 4047 4117 7136 7194 10046 10117 11940 12088 13073
	}
	manpower=40431
	buildings_max_level_factor=1.000
	state_category=rural
}
