
state={
	id=495
	name="STATE_495"
	resources={
		aluminium=4.000
	}

	history={
		owner = BRA
		buildings = {
			infrastructure = 0

		}
		add_core_of = BRA

	}

	provinces={
		1979 2035 2198 4980 5008 5083 5214 5232 8172 8185 8254 10934 10956 12919 12965
	}
	manpower=979900
	buildings_max_level_factor=1.000
	state_category=rural
}
