
state={
	id=557
	name="STATE_557"

	history={
		owner = FRA
		victory_points = {
			5034 1
		}
		buildings = {
			infrastructure = 1
		}
	}

	provinces={
		1962 5034 5077 7992 8035 8058 10779 10814
	}
	manpower=225000
	buildings_max_level_factor=1.000
	state_category=rural
}
