
state={
	id=629
	name="STATE_629"
	manpower = 368336
	state_category = town
	history={
		owner = USA
		buildings = {
			infrastructure = 3
			air_base = 5
			4180 = {
				naval_base = 10
			}
		}
		victory_points = {
			4180 15
		}
	}

	provinces={
		4180 7112 7195 10048 12021
	}
}
