state={
	id=691
	name="STATE_691"
	manpower = 413119
	resources={
		oil=12 # was: 16
	}

	state_category = rural


	history={
		owner = ENG
		victory_points = {
			3284 1
		}
		buildings = {
			infrastructure = 3
			3284 = {
				naval_base = 1
			}
		}
	}

	provinces={ 3284 13012 }
}
