
state={
	id=776
	name="STATE_776"

	history={
		owner = FRA
		victory_points = {
			10919 1
		}
		buildings = {
			infrastructure = 3
			10919 = {
				naval_base = 1

			}

		}

	}

	provinces={
		10919 13385
	}
	manpower=1351563
	buildings_max_level_factor=1.000
	state_category = pastoral
}
