
state={
	id=785
	name="STATE_785"
	resources={
		steel=20.000
		aluminium=4.000
	}

	history={
		victory_points = {
			11420 5
		}
		victory_points = {
			9561 2
		}
		victory_points = {
			3402 2
		}
		owner = FRA
		add_core_of = FRA
		buildings = {
			infrastructure = 4
			industrial_complex = 1
			454 = {
				trench = 6
			}
			9561 = {
				trench = 6
			}
			11549 = {
				trench = 6
			}
		}

	}

	provinces={
		454 3402 3447 6585 9561 11420 11549
	}
	manpower=1580000
	buildings_max_level_factor=1.000
	state_category=town
}
