state={
	id=797
	name="STATE_797"
	provinces={
		13387 13391 13396 13401
	}
	history = {
		owner = ENG
		#add_core_of = ENG
	}
	manpower=100000
	buildings_max_level_factor=1.000
	state_category = rural
}
