state={
	id=816
	name="STATE_816"
	provinces={
		1966 4909 10891
	}
	history = {
		owner = MAJ
		add_core_of = MAJ
		add_claim_by = ITA
	}
	manpower=100000
	buildings_max_level_factor=1.000
	state_category = rural
}
