
state={
	id=834
	name="STATE_834"

	history={
		owner = OTT
		add_core_of = OTT
		add_core_of = MAC
		1914.1.1 = {
			owner = GRE
			controller = GRE
			remove_core_of = OTT

		}

	}

	provinces={
		895 9930 11818
	}
	manpower=183333
	buildings_max_level_factor=1.000
	state_category=rural
	local_supplies=0.000
}
