
state={
	id=835
	name="STATE_835"

	history={
		owner = OTT
		add_core_of = OTT
		add_core_of = MAC
		victory_points = {
			6990 1
		}
		1914.1.1 = {
			owner = GRE
			controller = GRE
			remove_core_of = OTT

		}

	}

	provinces={
		3526 3936 6990 9791 13626
	}
	manpower=100000
	buildings_max_level_factor=1.000
	state_category=rural
	local_supplies=0.000
}
