state={
	id=867
	name="STATE_867"
	provinces={
		11531
	}
	history = {
		victory_points = {
			11531 5
		}
		owner = GER
		add_core_of = GER
		buildings = {
			infrastructure = 4
		}
	}
	manpower=474570
	buildings_max_level_factor=1.000
	state_category = metropolis
}
