state={
	id=899
	name="STATE_899"
	provinces={
		671 688 3674 3675
	}
	history = {
		victory_points = {
			688 10
		}
		owner = AUS
		add_core_of = AUS
	}
	manpower=100000
	state_category = rural
	buildings_max_level_factor=1.000
}
