
state={
	id=923
	name="STATE_923"
	impassable = yes
	history={
		owner = EGY
		add_core_of = EGY
		buildings = {
			infrastructure = 0

		}

	}

	provinces={
		4191 10104 10754 13615
	}
	manpower=100000
	buildings_max_level_factor=1.000
	state_category=wasteland
}
