state={
	id=951
	name="STATE_951"
	provinces={
		13619
	}
	history = {
		owner = OTT
		add_core_of = OTT
		1918.1.1 = {
			owner = ENG
			controller = ENG
		}
	}
	manpower=100000
	buildings_max_level_factor=1.000
	state_category = rural
}
