state={
	id=975
	name="STATE_975"
	provinces={
		2048
	}
	history = {
		owner = SAU
		1910.1.1 = {
			owner = ENG
		}
	}
	impassable = yes
	manpower=1
	buildings_max_level_factor=1.000
	state_category = wasteland
}
