
state={
	id=98
	name="STATE_98"

	history={
		victory_points = {
			3230 5
		}
		owner = RUS
		buildings = {
			infrastructure = 3

			6567 = {
				bunker = 1
			}
			11329 = {
				bunker = 1
			}
		}
		add_core_of = RUS
		1918.11.11 = {
			owner = POL
			controller = POL
			remove_core_of = RUS
		}
	}

	provinces={
		3230 6259 6321 6567 9290 9316 11329
	}
	manpower=1412100
	buildings_max_level_factor=1.000
	state_category=rural
}
