
state={
	id=999
	name="STATE_999"

	history={
		owner = RUS
		add_core_of = RUS
		victory_points = {
			10472 5
		}
		buildings = {
			infrastructure = 2
			10472 = {
				bunker = 1

			}

		}
		1918.11.11 = {
			owner = OTT
			controller = OTT
			add_core_of = OTT
			remove_core_of = RUS
		}

	}

	provinces={
		6991 10472 13500 13527 13533
	}
	manpower=390654
	buildings_max_level_factor=1.000
	state_category=rural
}
