
strategic_region={
	id=144
	name="STRATEGICREGION_144"
	provinces={
		10726 13769 1502 2067 7832 7294 13759 12414 10112 13686 2045 7256 12767 10132 1367 8026 4925 2030 6999 10003 4431 11972 13726 12705 13741 7240 13691 517 531 556 1257 1395 1588 1647 1893 1918 1933 1976 1985 1999 2006 2022 2091 3742 3745 4041 4141 4167 4256 4295 4313 4375 4403 4407 4809 4939 4999 5007 5025 5048 5092 5193 6638 7208 7301 7397 7406 7418 7526 7897 7911 7948 7988 8049 8081 8104 9966 10144 10257 10304 10733 10787 10822 10841 10854 10880 10903 11865 12141 12156 12274 12356 12713 12724 12797 12819 12837 12882 13150 13670 13673 13678 13681 13699 13708 13713 13727 
	}
	weather={
		period={
			between={ 0.0 30.0 }
			temperature={ -10.0 -3.0 }
			temperature_day_night={ 8.0 -8.0 }
			no_phenomenon=0.700
			rain_light=0.000
			rain_heavy=0.000
			snow=0.200
			blizzard=0.100
			arctic_water=0.000
			mud=1.000
			sandstorm=0.000
			min_snow_level=0.000
		}
		period={
			between={ 0.1 27.1 }
			temperature={ -5.0 5.0 }
			temperature_day_night={ 8.0 -8.0 }
			no_phenomenon=0.750
			rain_light=0.000
			rain_heavy=0.000
			snow=0.200
			blizzard=0.050
			arctic_water=0.000
			mud=1.000
			sandstorm=0.000
			min_snow_level=0.000
		}
		period={
			between={ 0.2 30.2 }
			temperature={ 7.0 10.0 }
			temperature_day_night={ 8.0 -8.0 }
			no_phenomenon=0.850
			rain_light=0.050
			rain_heavy=0.000
			snow=0.050
			blizzard=0.050
			arctic_water=0.000
			mud=1.000
			sandstorm=0.000
			min_snow_level=0.000
		}
		period={
			between={ 0.3 29.3 }
			temperature={ 15.0 17.0 }
			temperature_day_night={ 8.0 -8.0 }
			no_phenomenon=0.850
			rain_light=0.100
			rain_heavy=0.050
			snow=0.000
			blizzard=0.000
			arctic_water=0.000
			mud=1.000
			sandstorm=0.000
			min_snow_level=0.000
		}
		period={
			between={ 0.4 30.4 }
			temperature={ 19.0 22.0 }
			temperature_day_night={ 8.0 -8.0 }
			no_phenomenon=0.750
			rain_light=0.100
			rain_heavy=0.150
			snow=0.000
			blizzard=0.000
			arctic_water=0.000
			mud=1.000
			sandstorm=0.000
			min_snow_level=0.000
		}
		period={
			between={ 0.5 29.5 }
			temperature={ 23.0 27.0 }
			temperature_day_night={ 8.0 -8.0 }
			no_phenomenon=0.650
			rain_light=0.100
			rain_heavy=0.250
			snow=0.000
			blizzard=0.000
			arctic_water=0.000
			mud=1.000
			sandstorm=0.000
			min_snow_level=0.000
		}
		period={
			between={ 0.6 30.6 }
			temperature={ 24.0 28.0 }
			temperature_day_night={ 8.0 -8.0 }
			no_phenomenon=0.600
			rain_light=0.150
			rain_heavy=0.250
			snow=0.000
			blizzard=0.000
			arctic_water=0.000
			mud=1.000
			sandstorm=0.000
			min_snow_level=0.000
		}
		period={
			between={ 0.7 30.7 }
			temperature={ 23.0 27.0 }
			temperature_day_night={ 8.0 -8.0 }
			no_phenomenon=0.650
			rain_light=0.150
			rain_heavy=0.200
			snow=0.000
			blizzard=0.000
			arctic_water=0.000
			mud=1.000
			sandstorm=0.000
			min_snow_level=0.000
		}
		period={
			between={ 0.8 29.8 }
			temperature={ 18.0 22.0 }
			temperature_day_night={ 8.0 -8.0 }
			no_phenomenon=0.750
			rain_light=0.100
			rain_heavy=0.150
			snow=0.000
			blizzard=0.000
			arctic_water=0.000
			mud=1.000
			sandstorm=0.000
			min_snow_level=0.000
		}
		period={
			between={ 0.9 30.9 }
			temperature={ 12.0 16.0 }
			temperature_day_night={ 8.0 -8.0 }
			no_phenomenon=0.850
			rain_light=0.070
			rain_heavy=0.080
			snow=0.000
			blizzard=0.000
			arctic_water=0.000
			mud=1.000
			sandstorm=0.000
			min_snow_level=0.000
		}
		period={
			between={ 0.10 29.10 }
			temperature={ 3.0 6.0 }
			temperature_day_night={ 8.0 -8.0 }
			no_phenomenon=0.900
			rain_light=0.050
			rain_heavy=0.000
			snow=0.050
			blizzard=0.000
			arctic_water=0.000
			mud=1.000
			sandstorm=0.000
			min_snow_level=0.000
		}
		period={
			between={ 0.11 30.11 }
			temperature={ -4.0 -3.0 }
			temperature_day_night={ 6.0 -6.0 }
			no_phenomenon=0.750
			rain_light=0.000
			rain_heavy=0.000
			snow=0.150
			blizzard=0.100
			arctic_water=0.000
			mud=1.000
			sandstorm=0.000
			min_snow_level=0.000
		}
		period={
			between={ 4.11 21.11 }
			temperature={ -10.0 35.0 }
			temperature_day_night={ 2.0 -2.0 }
			no_phenomenon=1.500
			rain_light=0.250
			rain_heavy=0.100
			snow=0.000
			blizzard=0.000
			arctic_water=0.000
			mud=0.000
			sandstorm=0.000
			min_snow_level=0.000
		}
	}
}
