
# strategic_region={
# 	id=225
# 	name="STRATEGICREGION_225"
# 	provinces={
# 		1041 1062 1118 1127 1130 1149 1174 1186 1189 1198 1204 4047 4051 4057 4060 4063 4117 4120 4133 4136 4151 4176 4194 4200 7063 7066 7076 7082 7136 7139 7154 7194 7206 7209 8069 9977 9980 9992 10037 10046 10049 10067 10117 10120 10123 11940 11954 12009 12025 12039 12079 12088 12094 13073 13078 
# 	}
# 	weather={
# 		period={
# 			between={ 0.0 30.0 }
# 			temperature={ 6.0 22.0 }
# 			no_phenomenon=0.600
# 			rain_light=0.000
# 			rain_heavy=0.000
# 			snow=0.000
# 			blizzard=0.000
# 			arctic_water=0.000
# 			mud=1.000
# 			sandstorm=0.200
# 			min_snow_level=0.000
# 		}
# 		period={
# 			between={ 0.1 27.1 }
# 			temperature={ 8.0 23.0 }
# 			no_phenomenon=0.600
# 			rain_light=0.000
# 			rain_heavy=0.000
# 			snow=0.000
# 			blizzard=0.000
# 			arctic_water=0.000
# 			mud=1.000
# 			sandstorm=0.200
# 			min_snow_level=0.000
# 		}
# 		period={
# 			between={ 0.2 30.2 }
# 			temperature={ 9.0 25.0 }
# 			no_phenomenon=0.600
# 			rain_light=0.000
# 			rain_heavy=0.000
# 			snow=0.000
# 			blizzard=0.000
# 			arctic_water=0.000
# 			mud=1.000
# 			sandstorm=0.200
# 			min_snow_level=0.000
# 		}
# 		period={
# 			between={ 0.3 29.3 }
# 			temperature={ 13.0 27.0 }
# 			no_phenomenon=0.600
# 			rain_light=0.000
# 			rain_heavy=0.000
# 			snow=0.000
# 			blizzard=0.000
# 			arctic_water=0.000
# 			mud=1.000
# 			sandstorm=0.200
# 			min_snow_level=0.000
# 		}
# 		period={
# 			between={ 0.4 30.4 }
# 			temperature={ 15.0 30.0 }
# 			no_phenomenon=0.600
# 			rain_light=0.000
# 			rain_heavy=0.000
# 			snow=0.000
# 			blizzard=0.000
# 			arctic_water=0.000
# 			mud=1.000
# 			sandstorm=0.200
# 			min_snow_level=0.000
# 		}
# 		period={
# 			between={ 0.5 29.5 }
# 			temperature={ 17.0 32.0 }
# 			no_phenomenon=0.600
# 			rain_light=0.000
# 			rain_heavy=0.000
# 			snow=0.000
# 			blizzard=0.000
# 			arctic_water=0.000
# 			mud=1.000
# 			sandstorm=0.200
# 			min_snow_level=0.000
# 		}
# 		period={
# 			between={ 0.6 30.6 }
# 			temperature={ 19.0 32.0 }
# 			no_phenomenon=0.600
# 			rain_light=0.000
# 			rain_heavy=0.000
# 			snow=0.000
# 			blizzard=0.000
# 			arctic_water=0.000
# 			mud=1.000
# 			sandstorm=0.200
# 			min_snow_level=0.000
# 		}
# 		period={
# 			between={ 0.7 30.7 }
# 			temperature={ 19.0 34.0 }
# 			no_phenomenon=0.600
# 			rain_light=0.000
# 			rain_heavy=0.000
# 			snow=0.000
# 			blizzard=0.000
# 			arctic_water=0.000
# 			mud=1.000
# 			sandstorm=0.200
# 			min_snow_level=0.000
# 		}
# 		period={
# 			between={ 0.8 29.8 }
# 			temperature={ 18.0 33.0 }
# 			no_phenomenon=0.600
# 			rain_light=0.000
# 			rain_heavy=0.000
# 			snow=0.000
# 			blizzard=0.000
# 			arctic_water=0.000
# 			mud=1.000
# 			sandstorm=0.200
# 			min_snow_level=0.000
# 		}
# 		period={
# 			between={ 0.9 30.9 }
# 			temperature={ 15.0 31.0 }
# 			no_phenomenon=0.600
# 			rain_light=0.000
# 			rain_heavy=0.000
# 			snow=0.000
# 			blizzard=0.000
# 			arctic_water=0.000
# 			mud=1.000
# 			sandstorm=0.200
# 			min_snow_level=0.000
# 		}
# 		period={
# 			between={ 0.10 29.10 }
# 			temperature={ 12.0 26.0 }
# 			no_phenomenon=0.600
# 			rain_light=0.000
# 			rain_heavy=0.000
# 			snow=0.000
# 			blizzard=0.000
# 			arctic_water=0.000
# 			mud=1.000
# 			sandstorm=0.200
# 			min_snow_level=0.000
# 		}
# 		period={
# 			between={ 0.11 30.11 }
# 			temperature={ 7.0 22.0 }
# 			no_phenomenon=0.600
# 			rain_light=0.000
# 			rain_heavy=0.000
# 			snow=0.000
# 			blizzard=0.000
# 			arctic_water=0.000
# 			mud=1.000
# 			sandstorm=0.200
# 			min_snow_level=0.000
# 		}
# 	}
# }