#focus_tree = {  ### tCS Russian Focus / AGamingButler ### 
#	id = TCS_Russia
#
#	country = {
#		factor = 0
#		modifier = {
#			add = 10
#			original_tag = RUS
#		}
#	}
#	continuous_focus_position = { x = 25 y = 5000 }
#	default = no



